{"page":1,"per_page":1,"photos":[{"id":1738655,"width":3982,"height":4977,"url":"https://www.pexels.com/photo/car-on-road-1738655/","photographer":"Ricardo Esquivel","photographer_url":"https://www.pexels.com/@rickyrecap","photographer_id":722822,"avg_color":"#303D44","src":{"original":"https://images.pexels.com/photos/1738655/pexels-photo-1738655.jpeg","large2x":"https://images.pexels.com/photos/1738655/pexels-photo-1738655.jpeg?auto=compress\u0026cs=tinysrgb\u0026dpr=2\u0026h=650\u0026w=940","large":"https://images.pexels.com/photos/1738655/pexels-photo-1738655.jpeg?auto=compress\u0026cs=tinysrgb\u0026h=650\u0026w=940","medium":"https://images.pexels.com/photos/1738655/pexels-photo-1738655.jpeg?auto=compress\u0026cs=tinysrgb\u0026h=350","small":"https://images.pexels.com/photos/1738655/pexels-photo-1738655.jpeg?auto=compress\u0026cs=tinysrgb\u0026h=130","portrait":"https://images.pexels.com/photos/1738655/pexels-photo-1738655.jpeg?auto=compress\u0026cs=tinysrgb\u0026fit=crop\u0026h=1200\u0026w=800","landscape":"https://images.pexels.com/photos/1738655/pexels-photo-1738655.jpeg?auto=compress\u0026cs=tinysrgb\u0026fit=crop\u0026h=627\u0026w=1200","tiny":"https://images.pexels.com/photos/1738655/pexels-photo-1738655.jpeg?auto=compress\u0026cs=tinysrgb\u0026dpr=1\u0026fit=crop\u0026h=200\u0026w=280"},"liked":false}],"total_results":8000,"next_page":"https://api.pexels.com/v1/search/?page=2\u0026per_page=1\u0026query=cars"}{"page":1,"per_page":5,"photos":[{"id":1738655,"width":3982,"height":4977,"url":"https://www.pexels.com/photo/car-on-road-1738655/","photographer":"Ricardo Esquivel","photographer_url":"https://www.pexels.com/@rickyrecap","photographer_id":722822,"avg_color":"#303D44","src":{"original":"https://images.pexels.com/photos/1738655/pexels-photo-1738655.jpeg","large2x":"https://images.pexels.com/photos/1738655/pexels-photo-1738655.jpeg?auto=compress\u0026cs=tinysrgb\u0026dpr=2\u0026h=650\u0026w=940","large":"https://images.pexels.com/photos/1738655/pexels-photo-1738655.jpeg?auto=compress\u0026cs=tinysrgb\u0026h=650\u0026w=940","medium":"https://images.pexels.com/photos/1738655/pexels-photo-1738655.jpeg?auto=compress\u0026cs=tinysrgb\u0026h=350","small":"https://images.pexels.com/photos/1738655/pexels-photo-1738655.jpeg?auto=compress\u0026cs=tinysrgb\u0026h=130","portrait":"https://images.pexels.com/photos/1738655/pexels-photo-1738655.jpeg?auto=compress\u0026cs=tinysrgb\u0026fit=crop\u0026h=1200\u0026w=800","landscape":"https://images.pexels.com/photos/1738655/pexels-photo-1738655.jpeg?auto=compress\u0026cs=tinysrgb\u0026fit=crop\u0026h=627\u0026w=1200","tiny":"https://images.pexels.com/photos/1738655/pexels-photo-1738655.jpeg?auto=compress\u0026cs=tinysrgb\u0026dpr=1\u0026fit=crop\u0026h=200\u0026w=280"},"liked":false},{"id":2356071,"width":6000,"height":4000,"url":"https://www.pexels.com/photo/vehicle-passing-through-rural-area-2356071/","photographer":"Errin Casano","photographer_url":"https://www.pexels.com/@errin-casano-1240439","photographer_id":1240439,"avg_color":"#807965","src":{"original":"https://images.pexels.com/photos/2356071/pexels-photo-2356071.jpeg","large2x":"https://images.pexels.com/photos/2356071/pexels-photo-2356071.jpeg?auto=compress\u0026cs=tinysrgb\u0026dpr=2\u0026h=650\u0026w=940","large":"https://images.pexels.com/photos/2356071/pexels-photo-2356071.jpeg?auto=compress\u0026cs=tinysrgb\u0026h=650\u0026w=940","medium":"https://images.pexels.com/photos/2356071/pexels-photo-2356071.jpeg?auto=compress\u0026cs=tinysrgb\u0026h=350","small":"https://images.pexels.com/photos/2356071/pexels-photo-2356071.jpeg?auto=compress\u0026cs=tinysrgb\u0026h=130","portrait":"https://images.pexels.com/photos/2356071/pexels-photo-2356071.jpeg?auto=compress\u0026cs=tinysrgb\u0026fit=crop\u0026h=1200\u0026w=800","landscape":"https://images.pexels.com/photos/2356071/pexels-photo-2356071.jpeg?auto=compress\u0026cs=tinysrgb\u0026fit=crop\u0026h=627\u0026w=1200","tiny":"https://images.pexels.com/photos/2356071/pexels-photo-2356071.jpeg?auto=compress\u0026cs=tinysrgb\u0026dpr=1\u0026fit=crop\u0026h=200\u0026w=280"},"liked":false},{"id":1402787,"width":6000,"height":4000,"url":"https://www.pexels.com/photo/photo-of-audi-parked-near-trees-1402787/","photographer":"Vlad Alexandru Popa","photographer_url":"https://www.pexels.com/@vladalex94","photographer_id":612239,"avg_color":"#292C31","src":{"original":"https://images.pexels.com/photos/1402787/pexels-photo-1402787.jpeg","large2x":"https://images.pexels.com/photos/1402787/pexels-photo-1402787.jpeg?auto=compress\u0026cs=tinysrgb\u0026dpr=2\u0026h=650\u0026w=940","large":"https://images.pexels.com/photos/1402787/pexels-photo-1402787.jpeg?auto=compress\u0026cs=tinysrgb\u0026h=650\u0026w=940","medium":"https://images.pexels.com/photos/1402787/pexels-photo-1402787.jpeg?auto=compress\u0026cs=tinysrgb\u0026h=350","small":"https://images.pexels.com/photos/1402787/pexels-photo-1402787.jpeg?auto=compress\u0026cs=tinysrgb\u0026h=130","portrait":"https://images.pexels.com/photos/1402787/pexels-photo-1402787.jpeg?auto=compress\u0026cs=tinysrgb\u0026fit=crop\u0026h=1200\u0026w=800","landscape":"https://images.pexels.com/photos/1402787/pexels-photo-1402787.jpeg?auto=compress\u0026cs=tinysrgb\u0026fit=crop\u0026h=627\u0026w=1200","tiny":"https://images.pexels.com/photos/1402787/pexels-photo-1402787.jpeg?auto=compress\u0026cs=tinysrgb\u0026dpr=1\u0026fit=crop\u0026h=200\u0026w=280"},"liked":false},{"id":326259,"width":5600,"height":3700,"url":"https://www.pexels.com/photo/red-car-in-bus-326259/","photographer":"Pixabay","photographer_url":"https://www.pexels.com/@pixabay","photographer_id":2659,"avg_color":"#422C2D","src":{"original":"https://images.pexels.com/photos/326259/pexels-photo-326259.jpeg","large2x":"https://images.pexels.com/photos/326259/pexels-photo-326259.jpeg?auto=compress\u0026cs=tinysrgb\u0026dpr=2\u0026h=650\u0026w=940","large":"https://images.pexels.com/photos/326259/pexels-photo-326259.jpeg?auto=compress\u0026cs=tinysrgb\u0026h=650\u0026w=940","medium":"https://images.pexels.com/photos/326259/pexels-photo-326259.jpeg?auto=compress\u0026cs=tinysrgb\u0026h=350","small":"https://images.pexels.com/photos/326259/pexels-photo-326259.jpeg?auto=compress\u0026cs=tinysrgb\u0026h=130","portrait":"https://images.pexels.com/photos/326259/pexels-photo-326259.jpeg?auto=compress\u0026cs=tinysrgb\u0026fit=crop\u0026h=1200\u0026w=800","landscape":"https://images.pexels.com/photos/326259/pexels-photo-326259.jpeg?auto=compress\u0026cs=tinysrgb\u0026fit=crop\u0026h=627\u0026w=1200","tiny":"https://images.pexels.com/photos/326259/pexels-photo-326259.jpeg?auto=compress\u0026cs=tinysrgb\u0026dpr=1\u0026fit=crop\u0026h=200\u0026w=280"},"liked":false},{"id":457418,"width":2971,"height":4978,"url":"https://www.pexels.com/photo/yellow-mini-cooper-parked-beside-white-concrete-building-457418/","photographer":"Jacob Morch","photographer_url":"https://www.pexels.com/@jacobmorch","photographer_id":141023,"avg_color":"#69695A","src":{"original":"https://images.pexels.com/photos/457418/pexels-photo-457418.jpeg","large2x":"https://images.pexels.com/photos/457418/pexels-photo-457418.jpeg?auto=compress\u0026cs=tinysrgb\u0026dpr=2\u0026h=650\u0026w=940","large":"https://images.pexels.com/photos/457418/pexels-photo-457418.jpeg?auto=compress\u0026cs=tinysrgb\u0026h=650\u0026w=940","medium":"https://images.pexels.com/photos/457418/pexels-photo-457418.jpeg?auto=compress\u0026cs=tinysrgb\u0026h=350","small":"https://images.pexels.com/photos/457418/pexels-photo-457418.jpeg?auto=compress\u0026cs=tinysrgb\u0026h=130","portrait":"https://images.pexels.com/photos/457418/pexels-photo-457418.jpeg?auto=compress\u0026cs=tinysrgb\u0026fit=crop\u0026h=1200\u0026w=800","landscape":"https://images.pexels.com/photos/457418/pexels-photo-457418.jpeg?auto=compress\u0026cs=tinysrgb\u0026fit=crop\u0026h=627\u0026w=1200","tiny":"https://images.pexels.com/photos/457418/pexels-photo-457418.jpeg?auto=compress\u0026cs=tinysrgb\u0026dpr=1\u0026fit=crop\u0026h=200\u0026w=280"},"liked":false}],"total_results":8000,"next_page":"https://api.pexels.com/v1/search/?page=2\u0026per_page=5\u0026query=cars"}